           trace-4042  [000] ....  6657.821149: tracing_mark_write: ##### before write
           trace-4042  [000] ....  6657.821168: tracing_mark_write: ##### before fsync
   kworker/u16:2-3828  [000] ....  6657.821276: btrfs_cow_block <-btrfs_search_slot
   kworker/u16:2-3828  [000] ....  6657.821279: <stack trace>
 => btrfs_cow_block
 => btrfs_search_slot
 => btrfs_lookup_csum
 => btrfs_csum_file_blocks
 => add_pending_csums
 => btrfs_finish_ordered_io
 => finish_ordered_fn
 => normal_work_helper
 => btrfs_endio_write_helper
 => process_one_work
 => worker_thread
 => kthread
 => ret_from_fork
           trace-4042  [000] ....  6657.821458: tracing_mark_write: ##### after fsync
 btrfs-transacti-3462  [000] ....  6689.382568: btrfs_cow_block <-btrfs_search_slot
 btrfs-transacti-3462  [000] ....  6689.382576: <stack trace>
 => btrfs_cow_block
 => btrfs_search_slot
 => btrfs_insert_empty_items
 => alloc_reserved_file_extent
 => __btrfs_run_delayed_refs
 => btrfs_run_delayed_refs
 => btrfs_commit_transaction
 => transaction_kthread
 => kthread
 => ret_from_fork
 btrfs-transacti-3462  [000] ....  6689.382786: btrfs_cow_block <-btrfs_search_slot
 btrfs-transacti-3462  [000] ....  6689.382789: <stack trace>
 => btrfs_cow_block
 => btrfs_search_slot
 => btrfs_lookup_inode
 => btrfs_update_inode_item
 => btrfs_update_inode
 => cache_save_setup
 => btrfs_start_dirty_block_groups
 => btrfs_commit_transaction
 => transaction_kthread
 => kthread
 => ret_from_fork
 btrfs-transacti-3462  [000] ....  6689.384082: btrfs_cow_block <-commit_cowonly_roots
 btrfs-transacti-3462  [000] ....  6689.384088: <stack trace>
 => btrfs_cow_block
 => commit_cowonly_roots
 => btrfs_commit_transaction
 => transaction_kthread
 => kthread
 => ret_from_fork
